net
{
     node_size = (0 0);
     name = "New BN";
     UnBBayes_Color_Probabilistic_Description = "-256";
     UnBBayes_Color_Probabilistic_Explanation = "-16711936";
}

node Feding
{
     label = "C1";
     position = (53 128);
     states = ("Fed" "Unfed");
}

node TubeSite
{
     label = "C2";
     position = (365 14);
     states = ("Stomach" "Intestine");
}

node Medication
{
     label = "C3";
     position = (747 148);
     states = ("Present" "Absent");
}

node pH
{
     label = "C4";
     position = (364 139);
     states = ("ph<4" "4<ph<6" "ph>6");
}

potential (Feding)
{
 data = ( 0.64 0.36 );
}

potential (TubeSite)
{
 data = ( 0.64 0.36 );
}

potential (Medication)
{
 data = ( 0.36 0.64 );
}

potential (pH | TubeSite Medication Feding)
{
 data = (((( 0.44 0.42 0.14 )
( 0.49 0.25 0.26 ))
(( 0.53000003 0.40000004 0.07000001 )
( 0.73 0.14 0.13 )))
((( 0.08 0.12 0.8 )
( 0.01980198 0.04950495 0.9306931 ))
(( 0.12 0.07 0.81 )
( 0.03 0.09 0.88 ))));
}

