net
{
     node_size = (0 0);
     name = "exe2__Sprinkler";
     tree = "()";
     UnBBayes_Color_Probabilistic_Description = "-256";
     UnBBayes_Color_Probabilistic_Explanation = "-16711936";
}

node Rain
{
     label = "";
     position = (270 78);
     states = ("True" "False");
}

node Sprinkler
{
     label = "";
     position = (510 78);
     states = ("True" "False");
}

node Pavement
{
     label = "";
     position = (360 216);
     states = ("Wet" "Dry");
}

node Fall
{
     label = "Define if a person fall or not";
     position = (0 0);
     states = ("True" "False");
}

potential (Rain)
{
 data = ( 0.2 0.8 );
}

potential (Sprinkler)
{
 data = ( 0.1 0.9 );
}

potential (Pavement | Rain Sprinkler)
{
 data = ((( 0.95 0.05 )
( 0.9 0.1 ))
(( 0.75 0.25 )
( 0.05 0.95 )));
}

potential (Fall | Pavement)
{
 data = (( 0.2 0.8 )
( 0.02 0.98 ));
}

