net
{
     node_size = (0 0);
     name = "Syst584_S20_Hwk1_P3_wPartition";
     tree = "(PersonType,CriticalPartition,GenderPartition,Gender,HairPartition,CarEmpPartition,CriticizeGovernment,OwnsFax,HairLength,CarType,Employment)";
     UnBBayes_Color_Probabilistic_Description = "-256";
     UnBBayes_Color_Probabilistic_Explanation = "-16711936";
}

node PersonType
{
     label = "PersonType";
     position = (378 84);
     states = ("Agent" "Supporter" "Apolitical" "Dissident");
}

node criticPart
{
     label = "CriticalPartition";
     position = (378 204);
     states = ("AgentOrDissident" "SupporterOrApolitical");
}

node GenderPartition
{
     label = "GenderPartition";
     position = (132 84);
     states = ("AgentOrDissident" "Supporter" "Apolitical");
}

node gender1
{
     label = "Gender";
     position = (132 180);
     states = ("Male" "Female");
}

node HairPartition
{
     label = "HairPartition";
     position = (180 270);
     states = ("MaleDissident" "MaleNonDiss" "Female");
}

node CarEmpPartition
{
     label = "CarEmpPartition";
     position = (642 210);
     states = ("AgentOrSupporter" "ApoliticalOrDissident");
}

node CriticizeGovernment
{
     label = "CriticizeGovernment";
     position = (258 426);
     states = ("True" "False");
}

node OwnsFax
{
     label = "OwnsFax";
     position = (438 318);
     states = ("Owns" "DoesNotOwn");
}

node HairLength
{
     label = "HairLength";
     position = (90 372);
     states = ("Long" "Short");
}

node CarType
{
     label = "CarType";
     position = (684 378);
     states = ("Expensive" "Inexpensive");
}

node employ
{
     label = "Employment";
     position = (540 456);
     states = ("Sci_Art" "Other");
}

potential (PersonType)
{
 data = ( 0.01 0.44 0.45 0.1 );
}

potential (criticPart | PersonType)
{
 data = (( 1.0 0.0 )
( 0.0 1.0 )
( 0.0 1.0 )
( 1.0 0.0 ));
}

potential (GenderPartition | PersonType)
{
 data = (( 1.0 0.0 0.0 )
( 0.0 1.0 0.0 )
( 0.0 0.0 1.0 )
( 1.0 0.0 0.0 ));
}

potential (gender1 | GenderPartition)
{
 data = (( 0.9 0.1 )
( 0.53 0.47 )
( 0.1 0.9 ));
}

potential (HairPartition | PersonType gender1)
{
 data = ((( 0.0 1.0 0.0 )
( 0.0 0.0 1.0 ))
(( 0.0 1.0 0.0 )
( 0.0 0.0 1.0 ))
(( 0.0 1.0 0.0 )
( 0.0 0.0 1.0 ))
(( 1.0 0.0 0.0 )
( 0.0 0.0 1.0 )));
}

potential (CarEmpPartition | PersonType)
{
 data = (( 1.0 0.0 )
( 1.0 0.0 )
( 0.0 1.0 )
( 0.0 1.0 ));
}

potential (CriticizeGovernment | criticPart)
{
 data = (( 0.8 0.2 )
( 0.05 0.95 ));
}

potential (OwnsFax | criticPart)
{
 data = (( 0.8 0.2 )
( 0.3 0.7 ));
}

potential (HairLength | HairPartition)
{
 data = (( 0.3 0.7 )
( 0.05 0.95 )
( 0.5 0.5 ));
}

potential (CarType | CarEmpPartition)
{
 data = (( 0.8 0.2 )
( 0.3 0.7 ));
}

potential (employ | CarEmpPartition)
{
 data = (( 0.4 0.6 )
( 0.6 0.4 ));
}

