net
{
     node_size = (0 0);
     name = "Unit2_VehicleType";
     tree = "(Terrain Type,Vehicle Type,Vehicle Speed,Image Report - Position,Weather,Image Sensor Report,MTI Report - Speed)";
     UnBBayes_Color_Probabilistic_Description = "-256";
     UnBBayes_Color_Probabilistic_Explanation = "-16711936";
}

node TerrainType
{
     label = "Terrain Type";
     position = (680 27);
     states = ("Road" "OffRoad" "VeryRough");
}

node VehicleType
{
     label = "Vehicle Type";
     position = (328 28);
     states = ("Tracked" "Wheeled" "NonVehicle");
}

node VehicleSpeed
{
     label = "Vehicle Speed";
     position = (420 141);
     states = ("Stationary" "Slow" "Medium" "Fast");
}

node IMGreport_Position
{
     label = "Image Report - Position";
     position = (720 334);
     states = ("Road" "OffRoad" "VeryRough");
}

node Weather
{
     label = "Weather";
     position = (33 44);
     states = ("Cloudy" "Clear");
}

node ImageSensorReport
{
     label = "Image Sensor Report";
     position = (87 209);
     states = ("Tracked" "Wheeled" "NonVehicle");
}

node MTIReport
{
     label = "MTI Report - Speed";
     position = (411 300);
     states = ("Slow" "Medium" "Fast" "NoReport");
}

potential (TerrainType)
{
 data = ( 0.5 0.3 0.2 );
}

potential (VehicleType | TerrainType)
{
 data = (( 0.1 0.8 0.1 )
( 0.8 0.1 0.1 )
( 0.75 0.1 0.15 ));
}

potential (VehicleSpeed | TerrainType VehicleType)
{
 data = ((( 0.1 0.8 0.08 0.02 )
( 0.05 0.2 0.3 0.45 )
( 0.8 0.15 0.04 0.01 ))
(( 0.1 0.85 0.045 0.005 )
( 0.05 0.4 0.3 0.25 )
( 0.8 0.18 0.015 0.005 ))
(( 0.2 0.75 0.049 0.001 )
( 0.5 0.48 0.019 0.001 )
( 0.85 0.14 0.009 0.001 )));
}

potential (IMGreport_Position | Weather TerrainType)
{
 data = ((( 0.85 0.1 0.05 )
( 0.05 0.85 0.1 )
( 0.05 0.1 0.85 ))
(( 0.85 0.1 0.05 )
( 0.05 0.85 0.1 )
( 0.05 0.1 0.85 )));
}

potential (Weather)
{
 data = ( 0.2 0.8 );
}

potential (ImageSensorReport | Weather VehicleType)
{
 data = ((( 0.33333334 0.33333334 0.33333334 )
( 0.33333334 0.33333334 0.33333334 )
( 0.33333334 0.33333334 0.33333334 ))
(( 0.8 0.1 0.1 )
( 0.075 0.85 0.075 )
( 0.05 0.05 0.9 )));
}

potential (MTIReport | VehicleSpeed)
{
 data = (( 0.005 0.005 0.005 0.985 )
( 0.7 0.19 0.01 0.1 )
( 0.1 0.7 0.12 0.08 )
( 0.05 0.2 0.7 0.05 ));
}

